{
	"additionalNodes": [ {
		"children": [],
		"id": "y4Qo6iRQkUuPHzw4tS2rkEpyvcRPP5a5",
		"nodeType": "luaCommand",
		"parameters": [ {
			"name": "condition",
			"value": "rs:Finished()"
		}, {
			"name": "scriptName",
			"value": "waitUntil"
		} ],
		"scriptName": "waitUntil"
	}, {
		"children": [],
		"id": "xzKnlFjVAaa5xhamP5EFwt7kIs5Byk9K",
		"nodeType": "luaCommand",
		"parameters": [ {
			"name": "var",
			"value": "rs"
		}, {
			"name": "value",
			"value": "ReservationSystem(unitsIDs, bulidings)"
		}, {
			"name": "scriptName",
			"value": "store"
		} ],
		"scriptName": "store"
	} ],
	"additionalParameters": {
		"root": {
			"height": 108,
			"width": 216
		}
	},
	"inputs": [ {
		"command": "Variable",
		"name": "unitsIDs"
	} ],
	"outputs": [],
	"properties": {
		"06j67orxuCVt1rC4veevRrWZ5Gysm3H8": {
			"height": 90,
			"title": "luaCondition",
			"width": 385,
			"x": 737,
			"y": 20
		},
		"1juxaVmutJTsv9cF9ggROii3TEn0DVIk": {
			"height": 70,
			"title": "parallel",
			"width": 202,
			"x": 1469,
			"y": 55
		},
		"5FcoRrXH2r5KRh8zLsDEBgUeDgnPe4Nn": {
			"height": 54,
			"title": "success",
			"width": 132,
			"x": 2086,
			"y": 103
		},
		"F3Z8RtPR1O4r8kEg9jFBT9gQjTQgvZnV": {
			"height": 92,
			"title": "nota_mestek_labs.followPath",
			"width": 266,
			"x": 1928,
			"y": -50
		},
		"GTPwNJU8nXMPQutj7XFBF1yVLlj3P8gk": {
			"height": 94,
			"title": "store",
			"width": 432,
			"x": 1472,
			"y": 446
		},
		"HDzruKl25epdIpkjygZhsUI1JMronKIK": {
			"height": 92,
			"title": "store",
			"width": 205,
			"x": 1476,
			"y": 231
		},
		"JAykJEX9NWakFP7voFypF2b9Gng0pdnL": {
			"height": 92,
			"title": "store",
			"width": 197,
			"x": 1476,
			"y": 752
		},
		"KtVIzPnL5Hvz69PCvfSNRYW6YZia0haA": {
			"height": 214,
			"title": "reference",
			"width": 452,
			"x": 1439,
			"y": -399
		},
		"L2ymfXnWDmDyJgpJRv9MHu2AQqOnPCvx": {
			"height": 94,
			"title": "store",
			"width": 387,
			"x": 1435,
			"y": -160
		},
		"WFBjEJckM1RXfacITTCF9HY8SQ9vdDTv": {
			"height": 92,
			"title": "store",
			"width": 195,
			"x": 722,
			"y": -185
		},
		"WWb1eItzDDWy3v7gzXZu3a5TavF6obVF": {
			"height": 94,
			"title": "store",
			"width": 247,
			"x": 728,
			"y": -76
		},
		"aXU538LvqD6JusFZ0V5Ol6Zxxr4wwuWq": {
			"height": 60,
			"title": "sequence",
			"width": 143,
			"x": 463,
			"y": 17
		},
		"dFhuI6hr09K0kOe770z46I7rDSykXIw2": {
			"height": 90,
			"title": "luaCondition",
			"width": 247,
			"x": 1802,
			"y": 45
		},
		"dzfKxSzyujwyxSfPSejZJ0Qvd0bd3t1K": {
			"height": 92,
			"title": "nota_mestek_labs.followPath",
			"width": 266,
			"x": 2084,
			"y": 145
		},
		"fd4qkZtt483ezH4oIBEf5j0HWLVoUFHr": {
			"height": 72,
			"title": "waitUntil",
			"width": 244,
			"x": 1474,
			"y": 356
		},
		"ffDAQN1YiYIl0BLMFmh0yzgpFt2z1IFA": {
			"height": 94,
			"title": "store",
			"width": 432,
			"x": 1502,
			"y": 635
		},
		"hjq8539XtR8KM1bRnuDWynHskJA66xeS": {
			"height": 92,
			"title": "nota_mestek_labs.followPath",
			"width": 266,
			"x": 2110,
			"y": 21
		},
		"iXTXzKuShOZDjpbA91z4A9pCVUxkaMZv": {
			"height": 90,
			"title": "luaCondition",
			"width": 247,
			"x": 1735,
			"y": 164
		},
		"jbs43Ops2I0JAUXhIpk885159rYYTsc4": {
			"height": 60,
			"title": "sequence",
			"width": 143,
			"x": 1176,
			"y": -5
		},
		"mQOvOQ4kDhx4tKrrGiSdj6DlTUfzPekR": {
			"height": 54,
			"title": "success",
			"width": 132,
			"x": 2047,
			"y": 242
		},
		"oVwbrAWABJhX1OhtooKsZJbjFpToxZ3Y": {
			"height": 72,
			"title": "wait",
			"width": 131,
			"x": 1170,
			"y": 223
		},
		"qpZvO43oi6JjTp0MpcIakxIvcdBtlWZv": {
			"height": 94,
			"title": "store",
			"width": 432,
			"x": 1481,
			"y": 546
		},
		"sO74f9cWZSNJkwCGO0LLAeKQSm6Zq8sp": {
			"height": 60,
			"title": "repeat",
			"width": 131,
			"x": 279,
			"y": 17
		},
		"xzKnlFjVAaa5xhamP5EFwt7kIs5Byk9K": {
			"height": 94,
			"title": "store",
			"width": 356,
			"x": 1838,
			"y": -137
		},
		"y4Qo6iRQkUuPHzw4tS2rkEpyvcRPP5a5": {
			"height": 74,
			"title": "waitUntil",
			"width": 190,
			"x": 2168,
			"y": -103
		}
	},
	"roles": [ {
		"categories": [],
		"name": "Role 0"
	} ],
	"root": {
		"children": [ {
			"children": [ {
				"children": [],
				"id": "WFBjEJckM1RXfacITTCF9HY8SQ9vdDTv",
				"nodeType": "luaCommand",
				"parameters": [ {
					"name": "var",
					"value": "ns"
				}, {
					"name": "value",
					"value": "bb.nucs['Middle'] "
				}, {
					"name": "scriptName",
					"value": "store"
				} ],
				"scriptName": "store"
			}, {
				"children": [],
				"id": "WWb1eItzDDWy3v7gzXZu3a5TavF6obVF",
				"nodeType": "luaCommand",
				"parameters": [ {
					"name": "var",
					"value": "x"
				}, {
					"name": "value",
					"value": "FilterLivingUnits(unitsIDs)"
				}, {
					"name": "scriptName",
					"value": "store"
				} ],
				"scriptName": "store"
			}, {
				"children": [ {
					"children": [ {
						"children": [],
						"id": "KtVIzPnL5Hvz69PCvfSNRYW6YZia0haA",
						"nodeType": "reference",
						"parameters": [ {
							"name": "behaviourName",
							"value": "nota_mestek_labs.sd-moveGroupCorridor"
						} ],
						"referenceInputs": [ {
							"name": "corridorID",
							"value": "'Middle'"
						}, {
							"name": "unitsIDs",
							"value": "unitsIDs"
						}, {
							"name": "start1d",
							"value": "To1D(bb.cs.Middle, UnitPosition(GetOldest(unitsIDs)))"
						}, {
							"name": "target1d",
							"value": "To1D(bb.cs.Middle, ns.position)"
						}, {
							"name": "fight",
							"value": "false"
						} ],
						"referenceOutputs": []
					}, {
						"children": [],
						"id": "L2ymfXnWDmDyJgpJRv9MHu2AQqOnPCvx",
						"nodeType": "luaCommand",
						"parameters": [ {
							"name": "var",
							"value": "buildings"
						}, {
							"name": "value",
							"value": "GetBuildings({center = ns.position, radius=600})"
						}, {
							"name": "scriptName",
							"value": "store"
						} ],
						"scriptName": "store"
					}, {
						"children": [ {
							"children": [],
							"id": "F3Z8RtPR1O4r8kEg9jFBT9gQjTQgvZnV",
							"nodeType": "luaCommand",
							"parameters": [ {
								"name": "unitID",
								"value": "unitsIDs[1]"
							}, {
								"name": "path",
								"value": "{buildings[1]}"
							}, {
								"name": "scriptName",
								"value": "nota_mestek_labs.followPath"
							} ],
							"scriptName": "nota_mestek_labs.followPath"
						}, {
							"children": [ {
								"children": [],
								"id": "hjq8539XtR8KM1bRnuDWynHskJA66xeS",
								"nodeType": "luaCommand",
								"parameters": [ {
									"name": "unitID",
									"value": "unitsIDs[2]"
								}, {
									"name": "path",
									"value": "{buildings[2]}"
								}, {
									"name": "scriptName",
									"value": "nota_mestek_labs.followPath"
								} ],
								"scriptName": "nota_mestek_labs.followPath"
							}, {
								"children": [],
								"id": "5FcoRrXH2r5KRh8zLsDEBgUeDgnPe4Nn",
								"nodeType": "success",
								"parameters": []
							} ],
							"id": "dFhuI6hr09K0kOe770z46I7rDSykXIw2",
							"nodeType": "luaCondition",
							"parameters": [ {
								"name": "expression",
								"value": "#unitsIDs > 2 and #buildings > 2"
							}, {
								"name": "repeat",
								"value": "false"
							} ]
						}, {
							"children": [ {
								"children": [],
								"id": "dzfKxSzyujwyxSfPSejZJ0Qvd0bd3t1K",
								"nodeType": "luaCommand",
								"parameters": [ {
									"name": "unitID",
									"value": "unitsIDs[3]"
								}, {
									"name": "path",
									"value": "{buildings[3]}"
								}, {
									"name": "scriptName",
									"value": "nota_mestek_labs.followPath"
								} ],
								"scriptName": "nota_mestek_labs.followPath"
							}, {
								"children": [],
								"id": "mQOvOQ4kDhx4tKrrGiSdj6DlTUfzPekR",
								"nodeType": "success",
								"parameters": []
							} ],
							"id": "iXTXzKuShOZDjpbA91z4A9pCVUxkaMZv",
							"nodeType": "luaCondition",
							"parameters": [ {
								"name": "expression",
								"value": "#unitsIDs > 2 and #buildings > 2"
							}, {
								"name": "repeat",
								"value": "false"
							} ]
						} ],
						"id": "1juxaVmutJTsv9cF9ggROii3TEn0DVIk",
						"nodeType": "parallel",
						"parameters": [ {
							"name": "mode",
							"value": "all-success"
						} ]
					}, {
						"children": [],
						"id": "HDzruKl25epdIpkjygZhsUI1JMronKIK",
						"nodeType": "luaCommand",
						"parameters": [ {
							"name": "var",
							"value": "bb.stunReady.Middle"
						}, {
							"name": "value",
							"value": "true"
						}, {
							"name": "scriptName",
							"value": "store"
						} ],
						"scriptName": "store"
					}, {
						"children": [],
						"id": "fd4qkZtt483ezH4oIBEf5j0HWLVoUFHr",
						"nodeType": "luaCommand",
						"parameters": [ {
							"name": "condition",
							"value": "bb.needStun.Middle"
						}, {
							"name": "scriptName",
							"value": "waitUntil"
						} ],
						"scriptName": "waitUntil"
					}, {
						"children": [],
						"id": "GTPwNJU8nXMPQutj7XFBF1yVLlj3P8gk",
						"nodeType": "luaCommand",
						"parameters": [ {
							"name": "var",
							"value": "x"
						}, {
							"name": "value",
							"value": "Spring.GiveOrderToUnit(unitsIDs[1], CMD.SELFD,{},{})"
						}, {
							"name": "scriptName",
							"value": "store"
						} ],
						"scriptName": "store"
					}, {
						"children": [],
						"id": "qpZvO43oi6JjTp0MpcIakxIvcdBtlWZv",
						"nodeType": "luaCommand",
						"parameters": [ {
							"name": "var",
							"value": "x"
						}, {
							"name": "value",
							"value": "Spring.GiveOrderToUnit(unitsIDs[2], CMD.SELFD,{},{})"
						}, {
							"name": "scriptName",
							"value": "store"
						} ],
						"scriptName": "store"
					}, {
						"children": [],
						"id": "ffDAQN1YiYIl0BLMFmh0yzgpFt2z1IFA",
						"nodeType": "luaCommand",
						"parameters": [ {
							"name": "var",
							"value": "x"
						}, {
							"name": "value",
							"value": "Spring.GiveOrderToUnit(unitsIDs[3], CMD.SELFD,{},{})"
						}, {
							"name": "scriptName",
							"value": "store"
						} ],
						"scriptName": "store"
					}, {
						"children": [],
						"id": "JAykJEX9NWakFP7voFypF2b9Gng0pdnL",
						"nodeType": "luaCommand",
						"parameters": [ {
							"name": "var",
							"value": "bb.stunDone.Middle"
						}, {
							"name": "value",
							"value": "true"
						}, {
							"name": "scriptName",
							"value": "store"
						} ],
						"scriptName": "store"
					} ],
					"id": "jbs43Ops2I0JAUXhIpk885159rYYTsc4",
					"nodeType": "sequence",
					"parameters": []
				}, {
					"children": [],
					"id": "oVwbrAWABJhX1OhtooKsZJbjFpToxZ3Y",
					"nodeType": "wait",
					"parameters": [ {
						"name": "time",
						"value": 5
					} ]
				} ],
				"id": "06j67orxuCVt1rC4veevRrWZ5Gysm3H8",
				"nodeType": "luaCondition",
				"parameters": [ {
					"name": "expression",
					"value": "ns ~= nil and #unitsIDs > 2"
				}, {
					"name": "repeat",
					"value": "true"
				} ]
			} ],
			"id": "aXU538LvqD6JusFZ0V5Ol6Zxxr4wwuWq",
			"nodeType": "sequence",
			"parameters": []
		} ],
		"id": "sO74f9cWZSNJkwCGO0LLAeKQSm6Zq8sp",
		"nodeType": "repeat",
		"parameters": []
	}
}