{
	"additionalNodes": [],
	"additionalParameters": {
		"root": {
			"height": 148,
			"width": 236
		}
	},
	"inputs": [ {
		"command": "Variable",
		"name": "unitsGroupID"
	}, {
		"command": "Variable",
		"name": "supliesIDs"
	}, {
		"command": "Variable",
		"name": "corridorID"
	} ],
	"outputs": [],
	"properties": {
		"0t7bSPj7ymUaMVwlyQJICzGTxuirjshV": {
			"height": 72,
			"title": "wait",
			"width": 131,
			"x": 1366,
			"y": 436
		},
		"37DnJ22AZchpI0gkmUIi47Iq7hoLnhVH": {
			"height": 60,
			"title": "sequence",
			"width": 143,
			"x": 350,
			"y": 18
		},
		"9Zh6PJdoE5Ut4HTsScUYaVzLEBzCMB2S": {
			"height": 90,
			"title": "luaCondition",
			"width": 236,
			"x": 816,
			"y": 47
		},
		"BR7ilrY6Fanb5YtXDAmT0XgddHdajP3O": {
			"height": 92,
			"title": "store",
			"width": 131,
			"x": 591,
			"y": -42
		},
		"JvSsYlXPQfjLvjsK2iMhh8mGZKuIP9Gp": {
			"height": 60,
			"title": "repeat",
			"width": 131,
			"x": 598,
			"y": 60
		},
		"NCU1sWjGKA0p660F8dgySkmJ1KLM9q0G": {
			"height": 92,
			"title": "store",
			"width": 131,
			"x": 1617,
			"y": 403
		},
		"OO4mfMrHHjqc2dNxDBT7zYxSgTdqeenH": {
			"height": 60,
			"title": "sequence",
			"width": 143,
			"x": 1137,
			"y": 58
		},
		"WruRd00VNzBdmeiyA9CLgN42dSxeEQLf": {
			"height": 94,
			"title": "store",
			"width": 554,
			"x": 1334,
			"y": 48
		},
		"YjYkAtBUavC4sfVjJOWStJyOEamFksDr": {
			"height": 90,
			"title": "luaCondition",
			"width": 194,
			"x": 1349,
			"y": 330
		},
		"kwzjNvAkPsyHmqA8N1I5rQ47vcETaf05": {
			"height": 94,
			"title": "store",
			"width": 528,
			"x": 1350,
			"y": 159
		},
		"nY8iUWcb5RJV4xLDoxGuYeEDdrlRrxsx": {
			"height": 92,
			"title": "store",
			"width": 131,
			"x": 1587,
			"y": 262
		}
	},
	"roles": [ {
		"categories": [],
		"name": "Role 0"
	} ],
	"root": {
		"children": [ {
			"children": [],
			"id": "BR7ilrY6Fanb5YtXDAmT0XgddHdajP3O",
			"nodeType": "luaCommand",
			"parameters": [ {
				"name": "var",
				"value": "i"
			}, {
				"name": "value",
				"value": "0"
			}, {
				"name": "scriptName",
				"value": "store"
			} ],
			"scriptName": "store"
		}, {
			"children": [ {
				"children": [ {
					"children": [ {
						"children": [],
						"id": "WruRd00VNzBdmeiyA9CLgN42dSxeEQLf",
						"nodeType": "luaCommand",
						"parameters": [ {
							"name": "var",
							"value": "x"
						}, {
							"name": "value",
							"value": "AssignUnits(supliesIDs, unitsGroupID+i, bb.groups, bb.groupsAssignment)"
						}, {
							"name": "scriptName",
							"value": "store"
						} ],
						"scriptName": "store"
					}, {
						"children": [],
						"id": "kwzjNvAkPsyHmqA8N1I5rQ47vcETaf05",
						"nodeType": "luaCommand",
						"parameters": [ {
							"name": "var",
							"value": "deleteTable"
						}, {
							"name": "value",
							"value": "FilterUnitsInArea(supliesIDs, { center = Vec3(0,0,0), radius=1000000})"
						}, {
							"name": "scriptName",
							"value": "store"
						} ],
						"scriptName": "store"
					}, {
						"children": [ {
							"children": [],
							"id": "nY8iUWcb5RJV4xLDoxGuYeEDdrlRrxsx",
							"nodeType": "luaCommand",
							"parameters": [ {
								"name": "var",
								"value": "i"
							}, {
								"name": "value",
								"value": "i+1"
							}, {
								"name": "scriptName",
								"value": "store"
							} ],
							"scriptName": "store"
						}, {
							"children": [],
							"id": "NCU1sWjGKA0p660F8dgySkmJ1KLM9q0G",
							"nodeType": "luaCommand",
							"parameters": [ {
								"name": "var",
								"value": "i"
							}, {
								"name": "value",
								"value": "0"
							}, {
								"name": "scriptName",
								"value": "store"
							} ],
							"scriptName": "store"
						} ],
						"id": "YjYkAtBUavC4sfVjJOWStJyOEamFksDr",
						"nodeType": "luaCondition",
						"parameters": [ {
							"name": "expression",
							"value": "i < 4"
						}, {
							"name": "repeat",
							"value": "false"
						} ]
					}, {
						"children": [],
						"id": "0t7bSPj7ymUaMVwlyQJICzGTxuirjshV",
						"nodeType": "wait",
						"parameters": [ {
							"name": "time",
							"value": 5
						} ]
					} ],
					"id": "OO4mfMrHHjqc2dNxDBT7zYxSgTdqeenH",
					"nodeType": "sequence",
					"parameters": []
				} ],
				"id": "9Zh6PJdoE5Ut4HTsScUYaVzLEBzCMB2S",
				"nodeType": "luaCondition",
				"parameters": [ {
					"name": "expression",
					"value": "# supliesIDs >= 3"
				}, {
					"name": "repeat",
					"value": "false"
				} ]
			} ],
			"id": "JvSsYlXPQfjLvjsK2iMhh8mGZKuIP9Gp",
			"nodeType": "repeat",
			"parameters": []
		} ],
		"id": "37DnJ22AZchpI0gkmUIi47Iq7hoLnhVH",
		"nodeType": "sequence",
		"parameters": []
	}
}